{
    "inputMessageMetadata": {
        "messagePayload": {
            "connectorName": "#_custom_mule_metadata_type_#",
            "typeId": "json-weather-main"
        }
    },
    "outputMessageMetadata": {
        "messagePayload": {
            "connectorName": "#_custom_mule_metadata_type_#",
            "typeId": "json-weather-main"
        }
    },
    "id": "54a7ab63-8d91-4555-8d3f-ce6d756908ea",
    "version": "5.2.0.0"
}